<?xml version="1.0" encoding="utf-8"?>
<!-- Generator: Adobe Illustrator 23.0.2, SVG Export Plug-In . SVG Version: 6.00 Build 0)  -->
<svg version="1.1" id="Layer_1" xmlns="http://www.w3.org/2000/svg" xmlns:xlink="http://www.w3.org/1999/xlink" x="0px" y="0px"
	 viewBox="0 0 30.9 20.8" style="enable-background:new 0 0 30.9 20.8;" xml:space="preserve">
<style type="text/css">
	.st0{fill:none;stroke:#FF4343;stroke-width:2;stroke-linecap:round;}
</style>
<g id="Group_453" transform="translate(19.414 -7.5) rotate(90)">
	<line id="Line_75" class="st0" x1="17.7" y1="18.2" x2="17.7" y2="-10.3"/>
	<line id="Line_76" class="st0" x1="8.7" y1="-1.3" x2="17.7" y2="-10.3"/>
	<line id="Line_77" class="st0" x1="26.7" y1="-1.3" x2="17.7" y2="-10.3"/>
</g>
</svg>
