<svg xmlns="http://www.w3.org/2000/svg" width="99.253" height="29.72" viewBox="0 0 99.253 29.72">
  <g id="logo-senty.6cb510ae" transform="translate(-4 -1.604)">
    <g id="Group" transform="translate(4 1.604)">
      <g id="watermark" transform="translate(0 2.246)">
        <path id="Mask" d="M11.793,10.268a1.874,1.874,0,1,1,2.223-1.443A1.874,1.874,0,0,1,11.793,10.268ZM3.537,15.8l17.493-6.7A9.371,9.371,0,1,0,3.537,15.8Zm6.113,8.3A12.181,12.181,0,1,1,24.1,14.715,12.18,12.18,0,0,1,9.651,24.1Zm2.143-5.4a1.874,1.874,0,1,0-1.443-2.223A1.874,1.874,0,0,0,11.793,18.7Z" fill="#fff"/>
      </g>
      <path id="senty" d="M44.747,11.156c.249.486-.071,1.1-.962,1.56s-1.573.988-2.056,0A2.084,2.084,0,0,0,39.888,11.3a1.235,1.235,0,0,0-.873.338,1.13,1.13,0,0,0-.362.865q0,.922,2.142,1.829a12.767,12.767,0,0,1,3.97,2.339,4,4,0,0,1,1.021,2.883,5.052,5.052,0,0,1-1.713,3.888,6.143,6.143,0,0,1-9.736-2.455L37.5,19.525a6.88,6.88,0,0,0,1,1.466,2.293,2.293,0,0,0,1.614.626Q42,21.617,42,19.9q0-.989-1.45-1.845-.56-.28-1.12-.544t-1.137-.544a6.958,6.958,0,0,1-2.273-1.581,3.9,3.9,0,0,1-.84-2.586,4.577,4.577,0,0,1,1.433-3.459,5.028,5.028,0,0,1,3.558-1.367A4.854,4.854,0,0,1,44.747,11.156Zm16.77,6.161H50.892a4.872,4.872,0,0,0,1.285,3.146,3.918,3.918,0,0,0,2.916,1.153,3.793,3.793,0,0,0,2.29-.659,9.378,9.378,0,0,0,2.026-2.438l3.13,1.746a12.453,12.453,0,0,1-1.532,2.117,8.148,8.148,0,0,1-1.73,1.45,6.936,6.936,0,0,1-1.993.832,9.7,9.7,0,0,1-2.323.264,7.553,7.553,0,0,1-5.766-2.306,8.651,8.651,0,0,1-2.174-6.161A8.889,8.889,0,0,1,49.129,10.3a7.269,7.269,0,0,1,5.634-2.323,7.205,7.205,0,0,1,5.6,2.257,8.877,8.877,0,0,1,2.043,6.211h0A.89.89,0,0,1,61.517,17.317Zm-2.932-3.031a3.551,3.551,0,0,0-3.74-2.965,3.84,3.84,0,0,0-1.268.206,3.63,3.63,0,0,0-1.079.593,3.756,3.756,0,0,0-.832.931,4.325,4.325,0,0,0-.527,1.235Zm7.448-5.865h.379A1.483,1.483,0,0,1,67.894,9.9a6.076,6.076,0,0,1,4.382-1.927A5.534,5.534,0,0,1,76.641,9.74q1.351,1.5,1.351,4.893v9.835H74.269V15.505a5.877,5.877,0,0,0-.659-3.278,2.658,2.658,0,0,0-2.339-.923,2.861,2.861,0,0,0-2.619,1.219,8.388,8.388,0,0,0-.758,4.2v7.742H64.171V10.283A1.861,1.861,0,0,1,66.032,8.422Zm19.125,3.459V24.467H81.451V11.881H78.933V9.359a.937.937,0,0,1,.937-.937h1.581V3.457A1.853,1.853,0,0,1,83.3,1.6h0a1.853,1.853,0,0,1,1.853,1.853V8.422H87.1a.937.937,0,0,1,.937.937v2.522Zm10.063,9.6L89.045,10.3a1.268,1.268,0,0,1,1.11-1.882h1.024a1.874,1.874,0,0,1,1.655.994l4.38,8.231,4.063-8.184a1.875,1.875,0,0,1,1.679-1.041h.93a1.273,1.273,0,0,1,1.131,1.858L94.132,31.323H89.9Z" transform="translate(-5.906 -1.604)" fill="#fff" fill-rule="evenodd"/>
    </g>
  </g>
</svg>
