<svg xmlns="http://www.w3.org/2000/svg" width="18.567" height="22.207" viewBox="0 0 18.567 22.207">
    <defs>
        <style>
        .cls-1,
        .cls-4 {
            fill: none;
        }

        .cls-1 {
            stroke: #ff4343;
            stroke-width: 5px;
        }

        .cls-2 {
            fill: #ff4343;
        }

        .cls-3 {
            stroke: none;
        }
        </style>
    </defs>
    <g id="Group_317" data-name="Group 317" transform="translate(-1297 -1787.025)">
        <g id="Group_286" data-name="Group 286" transform="translate(1297 1787.025)">
            <g id="Ellipse_18" data-name="Ellipse 18" class="cls-1" transform="translate(0 0)">
                <circle class="cls-3" cx="9.284" cy="9.284" r="9.284" />
                <circle class="cls-4" cx="9.284" cy="9.284" r="6.784" />
            </g>
        </g>
        <path id="Path_64" data-name="Path 64" class="cls-2" d="M0,0,9.014,9.014H0Z" transform="translate(1299.819 1802.859) rotate(-45)" />
    </g>
</svg>